Start of Gitflow Workflow - Develop Branch

1. Gitflow content.

David's Feature: Waow!

Chrislene's Feature:

    #
   ###
  #####
 #######
#########
 #######
  #####
   ###
    #

    #
   ###
  #####
 #######
#########
 #######
  #####
   ###
    #

End of - Develop Branch for Release Branch

HotFix message

End of Gitflow Workflow
